{
  "image": "/assets/images/products/lorem.jpg",
  "background": [
    "/assets/images/products/background-detail.png",
    "/assets/images/products/background-detail2.png",
    "/assets/images/products/background-detail3.png"
  ],
  "slug": "lorem",
  "title": "Lorem",
  "price": "100"
}
